<?xml version="1.0" encoding="utf-8"?>
<!-- Generator: Adobe Illustrator 16.0.0, SVG Export Plug-In . SVG Version: 6.00 Build 0)  -->
<!DOCTYPE svg PUBLIC "-//W3C//DTD SVG 1.1//EN" "http://www.w3.org/Graphics/SVG/1.1/DTD/svg11.dtd">
<svg version="1.1" id="Layer_1" xmlns="http://www.w3.org/2000/svg" xmlns:xlink="http://www.w3.org/1999/xlink" x="0px" y="0px"
	 width="50px" height="50px" viewBox="0 0 50 50" enable-background="new 0 0 50 50" xml:space="preserve">
<path fill-rule="evenodd" clip-rule="evenodd" fill="#B03EB4" d="M31.517,8.992c-0.056-0.179-0.165-0.409-0.341-0.494
	c-0.066-0.031-0.143-0.032-0.236,0.021c-0.021-0.422,0.012-0.852,0.021-1.273c0.01-0.423,0.016-0.847,0.004-1.271
	c-0.008-0.235-0.02-0.471-0.041-0.705c-0.292-3.192-2.208-5.095-5.193-5.257c-0.252-0.014-0.494-0.015-0.73-0.01
	c-0.237-0.005-0.479-0.004-0.73,0.01c-2.985,0.162-4.901,2.064-5.193,5.257c-0.021,0.234-0.034,0.47-0.041,0.705
	c-0.012,0.424-0.006,0.848,0.003,1.271c0.009,0.422,0.042,0.852,0.021,1.273c-0.093-0.053-0.17-0.052-0.235-0.021
	c-0.177,0.085-0.285,0.315-0.341,0.494c-0.131,0.419-0.032,0.92,0.037,1.343c0.027,0.169,0.062,0.338,0.106,0.503
	c0.158,0.585,0.468,1.097,0.955,1.465c0.173,0.13,0.253,0.442,0.292,0.684c0.333,2.095,1.772,3.359,3.416,4.396
	C23.85,17.735,24.43,17.863,25,17.81c0.57,0.054,1.15-0.074,1.711-0.428c1.644-1.036,3.084-2.301,3.416-4.396
	c0.039-0.241,0.119-0.554,0.292-0.684c0.487-0.368,0.798-0.88,0.955-1.465c0.044-0.165,0.079-0.334,0.106-0.503
	C31.549,9.912,31.648,9.411,31.517,8.992z"/>
<path fill-rule="evenodd" clip-rule="evenodd" fill="#B03EB4" d="M47.216,37.585c-7.318-0.001-14.638-0.001-21.956-0.001
	c-0.087,0-0.174,0-0.26,0s-0.173,0-0.26,0c-7.318,0-14.637,0-21.956,0.001c-1.066,0-1.128,0.079-0.917,1.133
	c0.687,3.426,1.381,6.85,2.054,10.277C4.058,49.694,4.37,50.001,5.135,50c6.622-0.011,13.243-0.015,19.865-0.016
	c6.621,0.001,13.243,0.005,19.865,0.016c0.765,0.001,1.076-0.306,1.214-1.005c0.673-3.428,1.368-6.852,2.054-10.277
	C48.345,37.664,48.282,37.585,47.216,37.585z"/>
<path fill-rule="evenodd" clip-rule="evenodd" fill="#B03EB4" d="M42.434,32.878c-0.752-3.086-1.632-6.141-2.332-9.237
	c-0.347-1.534-1.063-2.392-2.628-2.845c-2.521-0.731-4.966-1.728-7.479-2.624c-0.791,4.229-1.574,8.411-2.357,12.593
	c-0.217-0.172-0.271-0.328-0.297-0.489c-0.299-1.924-0.512-3.866-0.918-5.768c-0.256-1.198-0.283-2.32,0.23-3.417
	c0.386-0.825-0.082-1.427-0.619-1.753C25.781,19.185,25.37,19.134,25,19.18c-0.37-0.046-0.781,0.005-1.033,0.158
	c-0.537,0.326-1.005,0.928-0.619,1.753c0.513,1.097,0.486,2.219,0.23,3.417c-0.406,1.901-0.619,3.844-0.918,5.768
	c-0.025,0.161-0.081,0.317-0.296,0.489c-0.783-4.182-1.566-8.363-2.358-12.593c-2.513,0.896-4.958,1.893-7.479,2.624
	c-1.564,0.453-2.281,1.311-2.628,2.845c-0.7,3.097-1.58,6.151-2.331,9.237c-0.234,0.961-0.295,2.01-0.444,3.055
	c1.339,0,2.568,0.002,3.792-0.059c1.206-0.062,2.406-0.232,3.677-0.362c0-0.482-0.014-0.763,0.002-1.04
	c0.117-2.038,0.385-4.026,0.878-6.037c0.454-1.853,1.761-3.021,2.586-4.549c0.24-0.444,0.712-0.6,1.185-0.284
	c0.493,0.328,0.543,0.795,0.226,1.27c-0.75,1.12-1.491,2.246-2.298,3.324c-0.284,0.379-0.96,0.555-1.087,0.943
	c-0.278,0.852-0.402,1.777-0.434,2.678c-0.034,0.961,0.093,1.93,0.193,2.891c0.024,0.236,0.176,0.611,0.34,0.655
	c0.87,0.232,1.729,0.553,2.619,0.564l5.862,0.006H25h0.337l5.862-0.006c0.891-0.012,1.749-0.332,2.619-0.564
	c0.164-0.044,0.315-0.419,0.34-0.655c0.1-0.961,0.227-1.93,0.193-2.891c-0.032-0.9-0.156-1.826-0.435-2.678
	c-0.127-0.389-0.804-0.564-1.087-0.943c-0.808-1.078-1.549-2.204-2.299-3.324c-0.317-0.475-0.268-0.941,0.227-1.27
	c0.472-0.315,0.944-0.16,1.184,0.284c0.825,1.528,2.133,2.696,2.586,4.549c0.493,2.011,0.762,3.999,0.879,6.037
	c0.016,0.277,0.002,0.558,0.002,1.04c1.271,0.13,2.472,0.301,3.678,0.362c1.223,0.061,2.452,0.059,3.791,0.059
	C42.729,34.888,42.668,33.839,42.434,32.878z"/>
</svg>
