<?xml version="1.0" encoding="utf-8"?>
<!-- Generator: Adobe Illustrator 16.0.0, SVG Export Plug-In . SVG Version: 6.00 Build 0)  -->
<!DOCTYPE svg PUBLIC "-//W3C//DTD SVG 1.1//EN" "http://www.w3.org/Graphics/SVG/1.1/DTD/svg11.dtd">
<svg version="1.1" id="Layer_1" xmlns="http://www.w3.org/2000/svg" xmlns:xlink="http://www.w3.org/1999/xlink" x="0px" y="0px"
	 width="5px" height="19px" viewBox="0 0 5 19" enable-background="new 0 0 5 19" xml:space="preserve">
<circle fill="#B03EB4" cx="2.5" cy="2.5" r="2.5"/>
<circle fill="#B03EB4" cx="2.5" cy="9.5" r="2.5"/>
<circle fill="#B03EB4" cx="2.5" cy="16.5" r="2.5"/>
</svg>
