<?xml version="1.0"?>
<svg width="357" height="357" xmlns="http://www.w3.org/2000/svg">
 <!-- Created with Method Draw - http://github.com/duopixel/Method-Draw/ -->

 <g>
  <title>background</title>
  <rect fill="#fff" id="canvas_background" height="359" width="359" y="-1" x="-1"/>
  <g display="none" overflow="visible" y="0" x="0" height="100%" width="100%" id="canvasGrid">
   <rect fill="url(#gridpattern)" stroke-width="0" y="0" x="0" height="100%" width="100%"/>
  </g>
 </g>
 <g>
  <title>Layer 1</title>
  <g id="svg_8">
   <g transform="matrix(7.111111534966369,0,0,7.111111534966369,0,0) " id="svg_5">
    <path id="svg_6" d="m42.171871,35.635876c0,-0.056 0.036999,-0.105 0.003002,-0.150002s-0.024002,-0.070999 -0.079002,-0.078999l-1.168999,-0.18c-0.063995,-0.203999 -0.151001,-0.413002 -0.263,-0.625999c0.077003,-0.105999 0.192001,-0.256001 0.346001,-0.450001c0.153,-0.193001 0.261997,-0.334999 0.325001,-0.424999c0.034,-0.047001 0.051998,-0.097 0.051998,-0.148003c0,-0.059998 -0.015999,-0.105 -0.044998,-0.139999c-0.153004,-0.217999 -0.504997,-0.580997 -1.055,-1.087997c-0.051003,-0.042 -0.104,-0.065002 -0.158997,-0.065002c-0.064003,0 -0.115005,0.016003 -0.153,0.054001l-0.907005,0.675999c-0.174999,-0.09 -0.366001,-0.183998 -0.574997,-0.251999l-0.179001,-1.208c-0.004002,-0.056 -0.028004,-0.164001 -0.072998,-0.201c-0.046005,-0.036999 -0.098003,-0.181999 -0.158005,-0.181999l-1.417999,0c-0.123001,0 -0.199997,0.187 -0.229,0.306c-0.056,0.212997 -0.117001,0.736 -0.186001,1.314999c-0.199997,0.063 -0.395,0.145 -0.580997,0.242001l-0.882,-0.683998c-0.056,-0.042 -0.112003,-0.063 -0.167,-0.063c-0.094002,0 -0.294998,0.152 -0.604,0.457001c-0.309002,0.304996 -0.519997,0.532997 -0.630001,0.686996c-0.037998,0.056004 -0.060997,0.104 -0.060997,0.146c0,0.052002 0.017998,0.103001 0.060997,0.153c0.285,0.346001 0.502998,0.640003 0.674,0.882004c-0.105999,0.195999 -0.209,0.392998 -0.269001,0.587997l-1.224995,0.179001c-0.047001,0.008999 -0.162006,0.035999 -0.195004,0.083c-0.034996,0.047001 -0.199001,0.097 -0.199001,0.146999l0,1.417999c0,0.056 0.164005,0.105 0.199001,0.150002c0.032997,0.044998 0.226997,0.070999 0.281998,0.079998l1.169003,0.172001c0.059998,0.209 0.146,0.420002 0.262001,0.632999c-0.076,0.106003 -0.191002,0.257 -0.345001,0.450001c-0.153,0.194 -0.261997,0.336002 -0.325996,0.424999c-0.034004,0.047001 -0.051006,0.096001 -0.051006,0.146999c0,0.055 0.015003,0.104 0.045006,0.146c0.166,0.230003 0.517998,0.587002 1.054001,1.072002c0.046997,0.047001 0.100998,0.07 0.159996,0.07c0.063004,0 0.117004,-0.02 0.159004,-0.059002l0.900993,-0.685997c0.174,0.09 0.366005,0.163998 0.574001,0.231998l0.18,1.167c0.004002,0.056 0.028004,0.084999 0.073002,0.121002s0.098,0.023998 0.156998,0.023998l1.417999,0c0.124001,0 0.200001,-0.026001 0.230003,-0.146c0.056,-0.213001 0.116997,-0.576 0.186001,-1.154999c0.199997,-0.063 0.393997,-0.145 0.580997,-0.242001l0.882,0.688999c0.059998,0.039001 0.114998,0.057999 0.166004,0.057999c0.093994,0 0.293999,-0.150997 0.600998,-0.452999c0.306999,-0.302998 0.516998,-0.531998 0.631996,-0.689999c0.038006,-0.042 0.056,-0.091999 0.056,-0.146c0,-0.056 -0.020996,-0.108002 -0.063999,-0.16c-0.306995,-0.375 -0.537998,-0.667999 -0.688,-0.882c0.085003,-0.157001 0.161003,-0.351002 0.242001,-0.581001l1.167999,-0.179001c0.052002,-0.008999 0.066002,-0.035999 0.101002,-0.083s-0.004002,-0.095997 -0.004002,-0.147999l0,-1.417999zm-3.641994,1.852001c-0.319004,0.318996 -0.704002,0.478996 -1.156006,0.478996c-0.451,0 -0.836998,-0.16 -1.155998,-0.478996s-0.479,-0.705002 -0.479,-1.156002s0.159,-0.836998 0.479,-1.155998s0.704998,-0.479 1.155998,-0.479c0.452003,0 0.837002,0.16 1.156006,0.479s0.478996,0.704998 0.478996,1.155998s-0.158997,0.837002 -0.478996,1.156002z" fill="#B03EB4"/>
    <path id="svg_7" d="m25.171873,0.171874c-13.807,0 -24.999999,11.192999 -24.999999,24.999999c0,13.807001 11.192999,25.000002 24.999999,25.000002s25.000002,-11.193001 25.000002,-25.000002c0,-13.807 -11.193005,-24.999999 -25.000002,-24.999999zm-14.276,14.772001c0.463001,-0.58 1.125,-0.772001 1.984001,-0.772001l24.642999,0c0.725998,0 1.354004,0.164 1.884003,0.689001s0.794994,1.105999 0.794994,1.842999c0,0.881001 -0.271999,1.675001 -0.819,2.478001c-0.548,0.803999 -1.229,1.49 -2.042995,2.059999c-4.197002,2.913 -6.809002,4.725 -7.834997,5.440001c-0.112,0.077999 -0.349005,0.249001 -0.712004,0.511c-0.361998,0.263 -0.663002,0.475 -0.903,0.637001c-0.241001,0.161999 -0.530001,0.342999 -0.870001,0.543999c-0.341,0.201 -0.661999,0.449001 -0.963999,0.549c-0.300997,0.102001 -0.579996,0.250002 -0.837002,0.250002l-0.016998,0l-0.017002,0c-0.256998,0 -0.535999,-0.148001 -0.836998,-0.250002c-0.301998,-0.099998 -0.623001,-0.299 -0.962999,-0.5c-0.341002,-0.201 -0.629997,-0.406 -0.870001,-0.567999s-0.542,-0.386 -0.904003,-0.648001c-0.362999,-0.261999 -0.599998,-0.438999 -0.711998,-0.518c-1.015999,-0.714001 -2.477995,-1.733999 -4.385998,-3.058001c-1.908999,-1.322001 -3.053,-2.118999 -3.432,-2.386999c-0.691999,-0.469 -1.346001,-1.114 -1.959002,-1.935001c-0.613998,-0.82 -0.921,-1.581999 -0.921,-2.285c0,-0.870998 0.232,-1.498999 0.695,-2.079998zm1.984001,22.228001c-0.736,0 -1.382,-0.074001 -1.907001,-0.598999c-0.525,-0.525002 -0.800999,-0.967003 -0.800999,-1.705002l0,-13.291c1,0.546 1.069,1.032 1.705999,1.455999c4.039,2.745001 6.821,4.67 8.327998,5.775c0.636002,0.469002 1.156004,0.835003 1.551003,1.098c0.396,0.262001 0.925999,0.556004 1.584,0.831001c0.658997,0.271 1.274,0.435001 1.843998,0.435001l0.017002,0l0.016998,0c0.569,0 1.183001,-0.164001 1.842003,-0.436001c0.657997,-0.275002 1.185997,-0.556 1.581997,-0.817001c0.396,-0.263 0.911999,-0.635998 1.549,-1.104c1.897003,-1.372 4.662003,-3.301001 8.322002,-5.778c0.635998,-0.435999 1.657997,-0.924999 1.657997,-1.459999l0,7.226c-0.898998,-0.346001 -1.872997,-0.543001 -2.895,-0.543001c-4.460999,0 -8.076,3.615002 -8.076,8.076004c0,0.281998 0.015003,0.562 0.043005,0.835999l-16.364001,0zm24.395997,6.071999c-3.808998,0 -6.908998,-3.100998 -6.908998,-6.91s3.101004,-6.908001 6.908998,-6.908001c3.810005,0 6.91,3.099003 6.91,6.908001s-3.099995,6.91 -6.91,6.91z" fill="#B03EB4"/>
   </g>
  </g>
  <ellipse stroke="#000" ry="145.000004" rx="165.500007" id="svg_11" cy="199.499989" cx="178.499996" stroke-opacity="null" stroke-width="0" fill="#b03eb4"/>
  <path stroke="#b03eb4" id="svg_12" d="m71.5,127.766296l0,0c0,-11.518417 11.234711,-20.857681 25.094299,-20.857681l11.406807,0l0,0l54.748283,0l102.65625,0c6.654999,0 13.039215,2.197647 17.744293,6.109268c4.705078,3.91188 7.350067,9.216904 7.350067,14.748413l0,52.144363l0,0l0,31.286484l0,0c0,11.519775 -11.234711,20.858444 -25.09436,20.858444l-102.65625,0l-71.523491,53.035843l16.775208,-53.035843l-11.406807,0c-13.859589,0 -25.094299,-9.338669 -25.094299,-20.858444l0,0l0,-31.286484l0,0l0,-52.144363z" stroke-width="4" fill="#ffffff"/>
 </g>
</svg>